<svg width="117" height="35" viewBox="0 0 117 35" fill="none" xmlns="http://www.w3.org/2000/svg">
  <path fill-rule="evenodd" clip-rule="evenodd" d="M10.985 6.48398L8.85866 8.16142L7.44092 9.27138V14.3621L8.17341 13.7961V16.1581L7.44092 16.725V21.8159L8.17341 21.2379V23.5993L7.44092 24.1781V29.269L8.85866 28.1591L10.985 26.4816L13.8078 24.2732V15.7334C13.8078 15.3795 13.536 15.0005 13.2641 14.8233C13.7134 14.4576 13.8078 14.0682 13.8078 13.6424V9.36628V4.27539L10.985 6.48462V6.48398ZM12.8041 19.4527C12.8041 19.9022 12.6271 20.1032 12.2371 20.4103L10.9852 21.3905L9.17778 22.82V20.458L10.9852 19.0291L12.0716 18.1902C12.4376 17.8948 12.8041 17.9655 12.8041 18.3669V19.453V19.4527ZM12.8041 12.0006C12.8041 12.4495 12.6271 12.6498 12.2371 12.9569L10.9852 13.9376L9.17778 15.3656V13.0048L10.9852 11.5747L12.0716 10.7362C12.4376 10.4403 12.8041 10.5122 12.8041 10.9136V12.0004V12.0006Z" fill="#E31E24"/>
  <path fill-rule="evenodd" clip-rule="evenodd" d="M10.264 5.54958V3.73193L8.85866 4.85492L8.44529 5.18515V3.28307L8.85866 2.9522L10.264 1.81851V0L8.85866 1.13304L7.44092 2.26737V7.81887L8.85866 6.68519L10.264 5.54958Z" fill="#E31E24"/>
  <path fill-rule="evenodd" clip-rule="evenodd" d="M3.54346 0V1.81851L4.45271 2.55122V4.54713L4.09833 4.26371V6.08265L4.94881 6.77945L5.81125 7.47625V5.65709L5.44469 5.36234V3.35403L6.35458 4.08695V2.26737L4.94881 1.13304L3.54346 0Z" fill="#E31E24"/>
  <path fill-rule="evenodd" clip-rule="evenodd" d="M0 4.27539V9.36628L4.94875 13.2641L5.53954 13.7255L4.94875 14.3159L4.21669 15.0368L0 11.7296V16.8203L1.34614 17.8711L0 19.1826V24.2732L4.94875 28.1591L6.35453 29.2692V24.1783L4.94875 23.0686L0.826538 19.821L2.16178 18.5095L4.94875 20.7057L6.35453 21.8163V16.7254L5.03169 15.6742L6.35453 14.3627V9.27202L4.94875 8.16206L0 4.27539Z" fill="#E31E24"/>
  <path d="M21.8712 6.75977L21.1458 9.37532H27.5781L20.5415 20.8932V23.3884H30.3873L31.3835 20.8932H24.347L31.4137 9.34518V6.75977H21.8712Z" fill="#2B2A29"/>
  <path d="M33.9455 10.3336C34.8419 10.3336 35.5684 9.60693 35.5684 8.70985C35.5684 7.81342 34.8417 7.08691 33.9455 7.08691C33.0478 7.08691 32.3213 7.81364 32.3213 8.70985C32.3213 9.60693 33.048 10.3336 33.9455 10.3336Z" fill="#2B2A29"/>
  <path d="M32.6743 23.3803H35.2788V11.2627H32.6743V23.3803Z" fill="#2B2A29"/>
  <path d="M37.5981 23.3575V11.3076H39.7631V12.6668C39.7631 12.6668 40.4973 11.8514 41.5485 11.5799C42.5999 11.3076 43.5049 11.5429 43.5049 11.5429V13.862H41.802C41.114 13.862 39.8456 14.8044 39.8456 15.7109V23.3575H37.5981Z" fill="#2B2A29"/>
  <path d="M49.5946 20.2773C49.5946 20.7486 48.9303 21.5153 47.4807 21.5153C46.0313 21.5153 45.5356 20.4876 45.5356 19.8235C45.5356 19.1599 46.061 17.6342 47.6155 17.6342C49.0051 17.6342 49.5944 17.6192 49.5944 17.6192V20.2773H49.5946ZM52.385 23.3849V15.0674C52.385 11.8151 50.2738 10.9268 48.6881 10.9268C47.1026 10.9268 45.427 11.3523 45.427 11.3523L44.8378 13.7903C44.8378 13.7903 46.8318 13.2102 48.0364 13.2102C49.2413 13.2102 49.6668 14.1528 49.6668 14.6236V15.7919C49.6668 15.7919 47.5557 15.7103 46.0063 16.1816C44.4571 16.6522 42.9263 17.6679 42.9263 20.3861C42.9263 23.104 45.3221 23.6117 46.8266 23.6117C48.3299 23.6117 49.3236 22.8136 49.3236 22.8136H49.7756V23.3849H52.385Z" fill="#2B2A29"/>
  <path d="M59.8204 20.2773C59.8204 20.7486 59.1563 21.5153 57.7067 21.5153C56.2574 21.5153 55.7615 20.4876 55.7615 19.8235C55.7615 19.1599 56.2884 17.6342 57.8427 17.6342C59.2311 17.6342 59.8202 17.6192 59.8202 17.6192V20.2773H59.8204ZM62.6108 23.3849V15.0674C62.6108 11.8151 60.5008 10.9268 58.914 10.9268C57.3295 10.9268 55.6529 11.3523 55.6529 11.3523L55.0649 13.7903C55.0649 13.7903 57.0574 13.2102 58.2623 13.2102C59.4671 13.2102 59.8929 14.1528 59.8929 14.6236V15.7919C59.8929 15.7919 57.7828 15.7103 56.2336 16.1816C54.6829 16.6522 53.1523 17.6679 53.1523 20.3861C53.1523 23.104 55.5495 23.6117 57.0525 23.6117C58.557 23.6117 59.5496 22.8136 59.5496 22.8136H60.0015V23.3849H62.611H62.6108Z" fill="#2B2A29"/>
  <path d="M64.7251 8.09201H67.2432V11.3528H70.1419L69.4902 13.2107H67.2793V20.1684C67.2793 21.0742 67.443 21.5911 68.3031 21.5911H69.7974V23.3578H67.1256C66.4004 23.3578 64.6338 22.859 64.6338 21.002V13.1652H63.4102V11.3077H64.7249V8.0918L64.7251 8.09201Z" fill="#2B2A29"/>
  <path d="M82.3689 11.2398C82.3689 13.2554 80.6021 13.7994 79.7645 13.7994H76.4348V8.726H79.5823C80.4662 8.726 82.3691 9.22402 82.3691 11.2398H82.3689ZM76.3672 15.7106H80.5247C82.0293 15.7106 83.1343 17.0696 83.1343 18.8456C83.1343 20.6216 81.5761 21.4776 80.0904 21.4776H76.3675V15.7106H76.3672ZM84.4302 10.6281C84.4302 8.27287 81.9743 6.86816 79.4475 6.86816H74.2373V23.4026H81.269C82.3913 23.4026 85.1557 21.9083 85.1557 18.646C85.1557 15.3847 82.1654 14.5242 82.1654 14.5242C82.1654 14.5242 84.4302 12.9842 84.4302 10.6281Z" fill="#2B2A29"/>
  <path d="M92.7204 19.0092C92.7204 20.4774 92.0561 22.1674 89.8513 22.1674C87.6464 22.1674 87.5853 20.761 87.5853 19.7043C87.5853 18.6473 88.282 17.0468 90.7266 17.0468H92.7206V19.0094L92.7204 19.0092ZM94.7129 23.567V14.5249C94.7129 12.3056 92.8553 10.9766 91.0286 10.9766C89.2022 10.9766 87.2232 11.8824 87.2232 11.8824L87.0122 13.7095C87.0122 13.7095 88.2369 13.0304 90.0025 12.6976C91.7966 12.3603 92.7503 13.3923 92.7503 14.1902V15.7937H89.9563C87.5117 15.7937 85.7437 17.5141 85.7437 20.0063C85.7437 22.9634 88.459 23.567 89.9836 23.567C91.5093 23.567 92.9014 22.6332 92.9014 22.6332V23.567H94.7129Z" fill="#2B2A29"/>
  <path d="M95.9814 23.43H98.0477V15.1304C98.0477 14.3703 99.4573 13.1742 101.055 13.1742C102.65 13.1742 102.686 14.2248 102.686 14.8047V23.43H104.861V14.0437C104.861 12.9962 103.653 11.0031 101.418 10.927C99.2763 10.8545 97.938 12.4856 97.938 12.4856V10.8906L95.9817 11.3031V23.4298L95.9814 23.43Z" fill="#2B2A29"/>
  <path d="M106.205 6.83203H108.521V15.747H108.991L112.978 10.6736H115.913L110.731 16.3818L116.456 23.2854H113.286L108.991 16.9792H108.483V23.394H106.201L106.205 6.83203Z" fill="#2B2A29"/>
  <path d="M51.2054 28.4844H52.0557V32.1851C52.0557 32.8295 51.9826 33.341 51.8381 33.72C51.6919 34.0974 51.4292 34.4061 51.0505 34.6431C50.6702 34.8804 50.1735 34.9996 49.556 34.9996C48.958 34.9996 48.4672 34.8966 48.0867 34.6895C47.705 34.482 47.4335 34.1838 47.2709 33.7916C47.1082 33.3994 47.0264 32.8637 47.0264 32.1853V28.4846H47.8766V32.1838C47.8766 32.7402 47.9288 33.1518 48.0318 33.4143C48.1348 33.6783 48.3107 33.8826 48.5627 34.0243C48.8132 34.1675 49.1206 34.2392 49.4831 34.2392C50.1036 34.2392 50.5465 34.0974 50.8107 33.8155C51.0746 33.5321 51.2059 32.9892 51.2059 32.1838V28.4846L51.2054 28.4844ZM52.9566 34.8921V34.2507L55.8981 30.856C55.5641 30.8738 55.2702 30.8828 55.0167 30.8828H53.1357V30.2473H56.9211V30.7648L54.4034 33.7091L53.9217 34.2565C54.2752 34.2268 54.6063 34.2118 54.9149 34.2118H57.0643V34.8919H52.9564L52.9566 34.8921ZM58.5725 34.8921H57.8387V28.4844H58.6263V30.771C58.9589 30.3563 59.3825 30.149 59.8985 30.149C60.1834 30.149 60.4549 30.2056 60.7099 30.3204C60.9651 30.4352 61.1737 30.5981 61.3393 30.8054C61.5033 31.0142 61.633 31.2647 61.7256 31.5586C61.8194 31.8508 61.8656 32.1656 61.8656 32.4997C61.8656 33.2931 61.6687 33.9076 61.2765 34.3402C60.8828 34.7744 60.4115 34.9907 59.8609 34.9907C59.3135 34.9907 58.8841 34.7626 58.5723 34.3075V34.8923L58.5725 34.8921ZM58.5635 32.5354C58.5635 33.0903 58.6396 33.4917 58.7903 33.7392C59.0378 34.1434 59.3719 34.3462 59.7942 34.3462C60.1388 34.3462 60.4354 34.197 60.6847 33.8989C60.9352 33.6007 61.0604 33.1561 61.0604 32.5653C61.0604 31.9598 60.9411 31.5137 60.7011 31.2258C60.4609 30.9379 60.17 30.7932 59.8299 30.7932C59.4854 30.7932 59.1887 30.9424 58.9395 31.2406C58.689 31.539 58.5637 31.9699 58.5637 32.5352L58.5635 32.5354ZM65.9929 33.3887L66.8075 33.496C66.6807 33.969 66.4435 34.3373 66.0974 34.5982C65.7514 34.8594 65.3098 34.9905 64.7714 34.9905C64.0943 34.9905 63.5571 34.7816 63.1604 34.364C62.7635 33.9478 62.5652 33.3615 62.5652 32.6085C62.5652 31.8299 62.765 31.2243 63.1664 30.7947C63.5676 30.3636 64.0883 30.149 64.728 30.149C65.347 30.149 65.8527 30.3591 66.2449 30.7815C66.6371 31.2036 66.834 31.7974 66.834 32.5623C66.834 32.6087 66.8325 32.6786 66.8295 32.7712H63.3705C63.4005 33.2799 63.5437 33.6704 63.8031 33.9406C64.0611 34.2105 64.3847 34.3462 64.7712 34.3462C65.0589 34.3462 65.3051 34.2701 65.5079 34.1182C65.7123 33.966 65.8734 33.723 65.9927 33.3889L65.9929 33.3887ZM63.4154 32.1267H66.0019C65.9675 31.7358 65.8677 31.4436 65.705 31.2481C65.4558 30.9452 65.1307 30.7932 64.7325 30.7932C64.3715 30.7932 64.0688 30.914 63.8226 31.1557C63.5781 31.3975 63.4423 31.7211 63.4152 32.1267H63.4154ZM67.8052 34.8921V28.4844H68.5927V32.1342L70.4541 30.2473H71.4713L69.6994 31.9731L71.6504 34.8921H70.6809L69.1388 32.5192L68.5929 33.0501V34.8921H67.8055H67.8052ZM72.2771 29.3793V28.4844H73.0646V29.3793H72.2771ZM72.2771 34.8921V30.2473H73.0646V34.8921H72.2771ZM73.9522 33.5049L74.7309 33.3795C74.7743 33.6913 74.8965 33.9299 75.0964 34.097C75.2962 34.2624 75.5767 34.346 75.9347 34.346C76.2972 34.346 76.5656 34.2729 76.7416 34.1252C76.916 33.979 77.004 33.8059 77.004 33.6078C77.004 33.4301 76.9249 33.2899 76.7683 33.1886C76.658 33.1185 76.3893 33.0304 75.9629 32.9214C75.3873 32.7767 74.9889 32.6515 74.7651 32.5457C74.543 32.4382 74.3744 32.292 74.2596 32.1041C74.1448 31.9177 74.0865 31.7104 74.0865 31.4836C74.0865 31.2763 74.1341 31.0854 74.2282 30.9093C74.3237 30.7334 74.452 30.5872 74.6144 30.4707C74.7367 30.3811 74.9038 30.305 75.1139 30.2424C75.3257 30.18 75.551 30.1486 75.7928 30.1486C76.1565 30.1486 76.4759 30.2007 76.7503 30.3065C77.0263 30.411 77.2293 30.5542 77.3603 30.7331C77.4901 30.9135 77.5811 31.1538 77.6303 31.455L76.8606 31.5623C76.8264 31.3207 76.7249 31.1311 76.5577 30.9954C76.3908 30.8597 76.155 30.7926 75.8494 30.7926C75.4899 30.7926 75.2319 30.8522 75.0782 30.9717C74.9245 31.091 74.847 31.2312 74.847 31.3908C74.847 31.4921 74.8784 31.5847 74.9425 31.6666C75.0066 31.7501 75.1064 31.8202 75.2439 31.8754C75.323 31.9053 75.5525 31.9724 75.9372 32.0767C76.4921 32.2244 76.8798 32.3467 77.1006 32.4407C77.3214 32.5346 77.4944 32.6735 77.6196 32.8524C77.7464 33.0328 77.8092 33.2564 77.8092 33.525C77.8092 33.786 77.7331 34.0322 77.5794 34.2635C77.4257 34.4946 77.2052 34.6735 76.917 34.8004C76.6276 34.9272 76.301 34.9898 75.937 34.9898C75.3345 34.9898 74.8737 34.8646 74.5573 34.6155C74.2412 34.365 74.0399 33.9951 73.9518 33.5045L73.9522 33.5049ZM80.4495 34.1896L80.557 34.8846C80.3363 34.9308 80.1379 34.9548 79.965 34.9548C79.6801 34.9548 79.4593 34.9101 79.3013 34.819C79.1446 34.728 79.0341 34.6102 78.97 34.4625C78.9059 34.3148 78.8747 34.0047 78.8747 33.5319V30.856H78.2929V30.2473H78.8747V29.0989L79.6621 28.6259V30.2473H80.4495V30.856H79.6621V33.5766C79.6621 33.8018 79.6756 33.9463 79.7038 34.0104C79.7305 34.0746 79.7754 34.1252 79.838 34.1641C79.9007 34.2015 79.9902 34.2208 80.1065 34.2208C80.1928 34.2208 80.3078 34.2103 80.4495 34.1893V34.1896ZM84.2605 34.3103C83.9681 34.5593 83.6862 34.7337 83.4163 34.8368C83.1463 34.9398 82.8569 34.9905 82.5468 34.9905C82.0366 34.9905 81.6441 34.8667 81.3699 34.6175C81.0955 34.37 80.9582 34.0523 80.9582 33.6659C80.9582 33.4391 81.0104 33.2318 81.1134 33.0439C81.2177 32.856 81.3535 32.7068 81.5206 32.5933C81.689 32.4801 81.8771 32.3935 82.0874 32.3354C82.2426 32.2952 82.4769 32.2563 82.7885 32.2176C83.424 32.143 83.8938 32.0519 84.1936 31.9476C84.1966 31.8401 84.1981 31.7717 84.1981 31.7433C84.1981 31.4242 84.1235 31.1989 83.9743 31.0677C83.773 30.8902 83.4731 30.8022 83.0764 30.8022C82.7049 30.8022 82.4305 30.8678 82.2546 30.9978C82.0772 31.1275 81.9472 31.3571 81.8624 31.6884L81.0929 31.5808C81.163 31.2513 81.278 30.9841 81.4389 30.7815C81.6001 30.5786 81.8327 30.4234 82.137 30.3131C82.4399 30.2041 82.7934 30.1492 83.1931 30.1492C83.5898 30.1492 83.9136 30.1954 84.1627 30.2894C84.4104 30.3833 84.5938 30.4995 84.71 30.6412C84.8263 30.7829 84.9084 30.9621 84.9561 31.1784C84.9815 31.3124 84.9948 31.5541 84.9948 31.9017V32.9458C84.9948 33.6751 85.0112 34.1361 85.0441 34.3315C85.0755 34.5268 85.1412 34.7132 85.2365 34.8923H84.4132C84.3341 34.7267 84.2834 34.5328 84.2612 34.3108L84.2605 34.3103ZM84.1979 32.5651C83.9115 32.6814 83.4821 32.7799 82.9093 32.8605C82.584 32.9067 82.3544 32.9588 82.2202 33.017C82.0859 33.0751 81.9829 33.1602 81.91 33.2705C81.8369 33.3825 81.7997 33.5062 81.7997 33.6435C81.7997 33.8508 81.8788 34.0252 82.0383 34.1641C82.1977 34.3028 82.4305 34.373 82.7364 34.373C83.0392 34.373 83.3092 34.3073 83.5462 34.1748C83.7818 34.0434 83.9562 33.863 84.0667 33.6349C84.1518 33.4573 84.1934 33.1963 84.1934 32.8518L84.1979 32.5656V32.5651ZM86.2041 34.8919V30.2471H86.9109V30.9063C87.251 30.4008 87.7435 30.1488 88.3862 30.1488C88.6666 30.1488 88.9233 30.1994 89.1574 30.2993C89.3914 30.3993 89.5675 30.532 89.684 30.6947C89.8003 30.8571 89.8824 31.0512 89.9285 31.275C89.9568 31.421 89.9717 31.6762 89.9717 32.04V34.8919H89.1843V32.0699C89.1843 31.7491 89.1546 31.509 89.0932 31.3509C89.0321 31.1929 88.9233 31.0659 88.7681 30.9706C88.613 30.8768 88.4296 30.8289 88.2208 30.8289C87.8867 30.8289 87.5988 30.9349 87.3555 31.1482C87.1125 31.3601 86.9917 31.7642 86.9917 32.358V34.8921H86.2043L86.2041 34.8919Z" fill="#2B2A29"/>
</svg>
